{
	"data": {
		"type": "avancement",
		"id": "jdoe/aHR0cHM6Ly9kZXBvdC5jb20vcm9nZXIvcXVlc3Rpb25zX3Byb2cvZm9uY3Rpb25zMDEvYXBwZWxlcl91bmVfZm9uY3Rpb24",
		"attributes": {
			"état": 2,
			"titre": "",
			"niveau": "",
			"date_modification": 0,
			"date_réussite": 0
		},
		"links": {
			"self": "https://example.com/avancement/jdoe/aHR0cHM6Ly9kZXBvdC5jb20vcm9nZXIvcXVlc3Rpb25zX3Byb2cvZm9uY3Rpb25zMDEvYXBwZWxlcl91bmVfZm9uY3Rpb24"
		},
		"relationships": {
			"tentatives": {
				"links": {
					"self": "https://example.com/avancement/jdoe/aHR0cHM6Ly9kZXBvdC5jb20vcm9nZXIvcXVlc3Rpb25zX3Byb2cvZm9uY3Rpb25zMDEvYXBwZWxlcl91bmVfZm9uY3Rpb24/relationships/tentatives",
					"related": "https://example.com/avancement/jdoe/aHR0cHM6Ly9kZXBvdC5jb20vcm9nZXIvcXVlc3Rpb25zX3Byb2cvZm9uY3Rpb25zMDEvYXBwZWxlcl91bmVfZm9uY3Rpb24/tentatives"
				}
			},
			"sauvegardes": {
				"links": {
					"self": "https://example.com/avancement/jdoe/aHR0cHM6Ly9kZXBvdC5jb20vcm9nZXIvcXVlc3Rpb25zX3Byb2cvZm9uY3Rpb25zMDEvYXBwZWxlcl91bmVfZm9uY3Rpb24/relationships/sauvegardes",
					"related": "https://example.com/avancement/jdoe/aHR0cHM6Ly9kZXBvdC5jb20vcm9nZXIvcXVlc3Rpb25zX3Byb2cvZm9uY3Rpb25zMDEvYXBwZWxlcl91bmVfZm9uY3Rpb24/sauvegardes"
				}
			}
		}
	}
}