{
	"data": {
		"type": "tentative",
		"id": "jdoe/aHR0cHM6Ly9kZXBvdC5jb20vcm9nZXIvcXVlc3Rpb25zX3Byb2cvZm9uY3Rpb25zMDEvYXBwZWxlcl91bmVfZm9uY3Rpb24/%1$d",
		"attributes": {
			"date_soumission": %1$d,
			"feedback": "Encore un effort!",
			"réussi": false,
			"sous-type": "tentativeProg",
			"langage": "python",
			"code": "#+TODO\nprint(\"Hello world!\")",
			"tests_réussis": 0,
			"temps_exécution": 551
		},
		"links": {
			"self": "https://example.com/tentative/jdoe/aHR0cHM6Ly9kZXBvdC5jb20vcm9nZXIvcXVlc3Rpb25zX3Byb2cvZm9uY3Rpb25zMDEvYXBwZWxlcl91bmVfZm9uY3Rpb24/%1$d"
		},
		"relationships": {
			"commentaires":{
				"links": {
					"related": "https://example.com/tentative/jdoe/aHR0cHM6Ly9kZXBvdC5jb20vcm9nZXIvcXVlc3Rpb25zX3Byb2cvZm9uY3Rpb25zMDEvYXBwZWxlcl91bmVfZm9uY3Rpb24/%1$d/commentaires",
					"self": "https://example.com/tentative/jdoe/aHR0cHM6Ly9kZXBvdC5jb20vcm9nZXIvcXVlc3Rpb25zX3Byb2cvZm9uY3Rpb25zMDEvYXBwZWxlcl91bmVfZm9uY3Rpb24/%1$d/relationships/commentaires"
				}
			},
			"resultats": {
				"links": {
					"self": "https://example.com/tentative/jdoe/aHR0cHM6Ly9kZXBvdC5jb20vcm9nZXIvcXVlc3Rpb25zX3Byb2cvZm9uY3Rpb25zMDEvYXBwZWxlcl91bmVfZm9uY3Rpb24/%1$d/relationships/resultats",
					"related": "https://example.com/tentative/jdoe/aHR0cHM6Ly9kZXBvdC5jb20vcm9nZXIvcXVlc3Rpb25zX3Byb2cvZm9uY3Rpb25zMDEvYXBwZWxlcl91bmVfZm9uY3Rpb24/%1$d/resultats"
				},
				"data": [
					{
						"type": "resultat",
						"id": "jdoe/aHR0cHM6Ly9kZXBvdC5jb20vcm9nZXIvcXVlc3Rpb25zX3Byb2cvZm9uY3Rpb25zMDEvYXBwZWxlcl91bmVfZm9uY3Rpb24/%1$d/0"
					}
				]
			}
		}
	},
	"included": [
		{
			"type": "resultat",
			"id": "jdoe/aHR0cHM6Ly9kZXBvdC5jb20vcm9nZXIvcXVlc3Rpb25zX3Byb2cvZm9uY3Rpb25zMDEvYXBwZWxlcl91bmVfZm9uY3Rpb24/%1$d/0",
			"attributes": {
				"sortie_observée": "Bonjour\nAllo\n",
				"sortie_erreur": "",
				"résultat": false,
				"feedback": "C'est pas ça :(",
				"temps_exec": 30
			},
			"links": {
				"self": "https://example.com/resultat/jdoe/aHR0cHM6Ly9kZXBvdC5jb20vcm9nZXIvcXVlc3Rpb25zX3Byb2cvZm9uY3Rpb25zMDEvYXBwZWxlcl91bmVfZm9uY3Rpb24/%1$d/0",
				"related": "https://example.com/tentative/jdoe/aHR0cHM6Ly9kZXBvdC5jb20vcm9nZXIvcXVlc3Rpb25zX3Byb2cvZm9uY3Rpb25zMDEvYXBwZWxlcl91bmVfZm9uY3Rpb24/%1$d"
			}
		}
	]
}
