{
	"data": {
		"type": "tentative",
		"id": "jdoe/aHR0cHM6Ly9kZXBvdC5jb20vcm9nZXIvcXVlc3Rpb25zX3Byb2cvZm9uY3Rpb25zMDEvYXBwZWxlcl91bmVfZm9uY3Rpb24/%1$d",
		"attributes": {
			"date_soumission":  %1$d,
			"feedback": "Bon travail!",
			"réussi": true,
			"sous-type": "tentativeProg",
			"langage": "tentativeRéussie",
			"code": "#+TODO\nprint(\"Hello world!\")",
			"tests_réussis": 1,
			"temps_exécution": 551
		},
		"links": {
			"self": "https://example.com/tentative/jdoe/aHR0cHM6Ly9kZXBvdC5jb20vcm9nZXIvcXVlc3Rpb25zX3Byb2cvZm9uY3Rpb25zMDEvYXBwZWxlcl91bmVfZm9uY3Rpb24/%1$d"
		},
		"relationships": {
			"commentaires":{
				"links": {
					"related": "https://example.com/tentative/jdoe/aHR0cHM6Ly9kZXBvdC5jb20vcm9nZXIvcXVlc3Rpb25zX3Byb2cvZm9uY3Rpb25zMDEvYXBwZWxlcl91bmVfZm9uY3Rpb24/%1$d/commentaires",
					"self": "https://example.com/tentative/jdoe/aHR0cHM6Ly9kZXBvdC5jb20vcm9nZXIvcXVlc3Rpb25zX3Byb2cvZm9uY3Rpb25zMDEvYXBwZWxlcl91bmVfZm9uY3Rpb24/%1$d/relationships/commentaires"
				}
			},
            "resultats": {
                "data": [
                    {
                        "id": "jdoe/aHR0cHM6Ly9kZXBvdC5jb20vcm9nZXIvcXVlc3Rpb25zX3Byb2cvZm9uY3Rpb25zMDEvYXBwZWxlcl91bmVfZm9uY3Rpb24/%1$d/0",
                        "type": "resultat"
                    }
                ],
				"links": {
					"self": "https://example.com/tentative/jdoe/aHR0cHM6Ly9kZXBvdC5jb20vcm9nZXIvcXVlc3Rpb25zX3Byb2cvZm9uY3Rpb25zMDEvYXBwZWxlcl91bmVfZm9uY3Rpb24/%1$d/relationships/resultats",
					"related": "https://example.com/tentative/jdoe/aHR0cHM6Ly9kZXBvdC5jb20vcm9nZXIvcXVlc3Rpb25zX3Byb2cvZm9uY3Rpb25zMDEvYXBwZWxlcl91bmVfZm9uY3Rpb24/%1$d/resultats"
				}
			}
		}
    },
    "included": [
        {
            "attributes": {
                "feedback": "C'est ça!",
                "résultat": true,
                "sortie_erreur": "",
                "sortie_observée": "Bonjour\nBonjour\n",
                "temps_exec": 30
            },
            "id": "jdoe/aHR0cHM6Ly9kZXBvdC5jb20vcm9nZXIvcXVlc3Rpb25zX3Byb2cvZm9uY3Rpb25zMDEvYXBwZWxlcl91bmVfZm9uY3Rpb24/%1$d/0",
            "links": {
                "related": "https://example.com/tentative/jdoe/aHR0cHM6Ly9kZXBvdC5jb20vcm9nZXIvcXVlc3Rpb25zX3Byb2cvZm9uY3Rpb25zMDEvYXBwZWxlcl91bmVfZm9uY3Rpb24/%1$d",
                "self": "https://example.com/resultat/jdoe/aHR0cHM6Ly9kZXBvdC5jb20vcm9nZXIvcXVlc3Rpb25zX3Byb2cvZm9uY3Rpb25zMDEvYXBwZWxlcl91bmVfZm9uY3Rpb24/%1$d/0"
            },
            "type": "resultat"
        }
    ]
 }
