{
	"data": {
		"type": "tentative",
		"id": "jdoe/cHJvZzEvbGVzX2ZvbmN0aW9uc18wMS9hcHBlbGVyX3VuZV9mb25jdGlvbl9wYXJhbcOpdHLDqWU/1614374490",
		"attributes": {
			"date_soumission": "1614374490",
			"feedback": "feedbackTest",
			"réussi": true,
			"sous-type": "tentativeProg",
			"langage": "python",
			"code": "codeTest",
			"tests_réussis": 2,
			"temps_exécution": 5
		},
		"links": {
			"self": "https://example.com/tentative/jdoe/cHJvZzEvbGVzX2ZvbmN0aW9uc18wMS9hcHBlbGVyX3VuZV9mb25jdGlvbl9wYXJhbcOpdHLDqWU/1614374490"
		},
		"relationships": {
			"commentaires":{
				"links": {
					"related": "https://example.com/tentative/jdoe/cHJvZzEvbGVzX2ZvbmN0aW9uc18wMS9hcHBlbGVyX3VuZV9mb25jdGlvbl9wYXJhbcOpdHLDqWU/1614374490/commentaires",
					"self": "https://example.com/tentative/jdoe/cHJvZzEvbGVzX2ZvbmN0aW9uc18wMS9hcHBlbGVyX3VuZV9mb25jdGlvbl9wYXJhbcOpdHLDqWU/1614374490/relationships/commentaires"
				}
			},
			"resultats": {
				"links": {
					"self": "https://example.com/tentative/jdoe/cHJvZzEvbGVzX2ZvbmN0aW9uc18wMS9hcHBlbGVyX3VuZV9mb25jdGlvbl9wYXJhbcOpdHLDqWU/1614374490/relationships/resultats",
					"related": "https://example.com/tentative/jdoe/cHJvZzEvbGVzX2ZvbmN0aW9uc18wMS9hcHBlbGVyX3VuZV9mb25jdGlvbl9wYXJhbcOpdHLDqWU/1614374490/resultats"
				}
			}
		}
	}
}
